Num_departement;Departement;Prefecture;Latitude;Longitude
3; Allier ; Moulins ; 46.566667 ; 3.333333 
15; Cantal ; Aurillac ; 44.916667 ; 2.45 
43; Haute-Loire ; Le Puy-en-Velay ; 45.04 ; 3.89 
63; Puy-de-Dôme ; Clermont-Ferrand ; 45.783333 ; 3.083333 
1; Ain ; Bourg-en-Bresse ; 46.2 ; 5.216667 
7; Ardèche ; Privas ; 44.733333 ; 4.6 
26; Drôme ; Valence ; 44.933333 ; 4.9 
38; Isère ; Grenoble ; 45.166667 ; 5.716667 
42; Loire ; Saint-Etienne ; 45.433333 ; 4.4 
69; Rhône ; Lyon ; 45.7717 ; 4.8569 
73; Savoie ; Chambéry ; 45.566667 ; 5.933333 
74; Haute-Savoie ; Annecy ; 45.9 ; 6.116667 
