ENTRÉES AU CINEMA 2003-2023;;;
;;;
;;;
;;;
Titre;Nationalité;Sortie;Entrées (millions)
ZOOTOPIE;ETATS UNIS;17/02/16;4,75
ZODIAC;ETATS UNIS;17/05/07;1,13
ZARAFA;FRANCE;08/02/12;1,44
YVES SAINT LAURENT;FRANCE;08/01/14;1,65
YETI ET COMPAGNIE;US;17/10/18;1,85
X-MEN ORIGINS WOLVERINE;ETATS UNIS;29/04/09;1,96
X-MEN L'AFFRONTEMENT FINAL;ETATS UNIS;24/05/06;2,81
X-MEN : LE COMMENCEMENT;ETATS UNIS;01/06/11;2,1
X-MEN : DAY OF FUTURE PAST;ETATS UNIS;21/05/14;3,28
X-MEN : DARK PHOENIX;USA;05/06/19;1,41
X-MEN : APOCALYPSE;ETATS UNIS;18/05/16;2,16
X MEN II;ETATS UNIS;30/04/03;2,78
WORLD WAR Z;ETATS UNIS;03/07/13;2,46
WONKA;GB;13/12/23;2,15
WONDER WOMAN;GB;07/06/17;2,15
WOLVERINE : LE COMBAT DE L'IMMORTEL;ETATS UNIS;24/07/13;1,99
WISH, ASHA ET LA BONNE ETOILE;US;29/11/23;2,13
WELCOME;FRANCE;11/03/09;1,22
WARCRAFT : LE COMMENCEMENT;ETATS UNIS;25/05/16;1,73
WANTED : CHOISIS TON DESTIN;ETATS UNIS;16/07/08;1,09
WALLACE ET GROMIT LE MYSTERE DU LAPIN-GAROU;GRANDE BRETAGNE;12/10/05;2,23
WALL-E;ETATS UNIS;30/07/08;3,17
VOYAGE EXTRAORDINAIRE DE SAMY (LE);Belgique;11/08/10;1,31
VOYAGE D'ARLO (LE);ETATS UNIS;25/11/15;2,32
VOYAGE AU CENTRE DE LA TERRE 3D;ETATS UNIS;16/07/08;1,21
VOYAGE AU CENTRE DE LA TERRE 2 : L'ILE MYSTERIEUSE;ETATS UNIS;15/02/12;1,32
VOLVER;ESPAGNE;19/05/06;2,3
VOLT, STAR MALGRE LUI;ETATS UNIS;04/02/09;2,88
VIVE LA FRANCE;FRANCE;20/02/13;1,11
VISITEURS : LA REVOLUTION (LES);FRANCE / BELGIQUE;06/04/16;2,2
VIPERE AU POING;FRANCE / GRANDE BRETAGNE;06/10/04;1,17
VILLAGE (LE);ETATS UNIS;18/08/04;2,36
VIE DES AUTRES (LA);ALLEMAGNE;31/01/07;1,54
VICKY CRISTINA BARCELONA;ESPAGNE;08/10/08;1,88
VICE-VERSA;ETATS UNIS;17/06/15;4,41
VERY BAD TRIP 3;ETATS UNIS;29/05/13;1,93
VERY BAD TRIP 2;ETATS UNIS;25/05/11;2,51
VERY BAD TRIP;ETATS UNIS;24/06/09;2
VERITE SI JE MENS 3 (LA);FRANCE;01/02/12;4,11
VENOM LET THERE BE CARNAGE;US;20/10/21;1,62
VENOM;US;10/10/18;2,28
VENGEANCE DANS LA PEAU (LA);GRANDE BRETAGNE;12/09/07;1,54
VAN HELSING;ETATS UNIS;05/05/04;1,52
VALERIAN ET LA CITE DES MILLE PLANETES;FR;26/07/17;4,04
VALENTINE'S DAY;ETATS UNIS;17/02/10;1,19
VAILLANTE;US;02/02/22;1,34
VAILLANT PIGEON DE COMBAT;GRANDE BRETAGNE;30/03/05;1,16
VAIANA, LA LÉGENDE DU BOUT DU MONDE;ETATS UNIS;30/11/16;4,53
VAIANA LA LEGENDE DU BOUT DU MONDE;US;30/11/16;1,02
VACHE (LA);FRANCE / MAROC;17/02/16;1,3
VACANCES DE MR BEAN (LES);GRANDE BRETAGNE;18/04/07;1,06
VACANCES DE DUCOBU (LES);FRANCE;25/04/12;1,06
UNCHARTED;US;16/02/22;2,51
UN SECRET;France / Allemagne;03/10/07;1,65
UN SAC DE BILLES;FR / CA;18/01/17;1,33
UN PROPHÈTE;FRANCE / ITALIE;26/08/09;1,22
UN PLAN PARFAIT;FRANCE  / BELGIQUE;31/10/12;1,22
UN MONSTRE A PARIS;FRANCE;12/10/11;1,74
UN LONG DIMANCHE DE FIANCAILLES;FRANCE;27/10/04;4,33
UN JOUR SUR TERRE;GRANDE BRETAGNE;10/10/07;1,4
UN BONHEUR N'ARRIVE JAMAIS SEUL;FRANCE;27/06/12;1,83
TWILIGHT - CHAPITRE 5 : REVELATION (2E PARTIE);ETATS UNIS;14/11/12;4,43
TWILIGHT - CHAPITRE 4 : REVELATION 1ÈRE PARTIE;ETATS UNIS;16/11/11;3,61
TWILIGHT - CHAPITRE 3 : HESITATION;ETATS UNIS;07/07/10;3,94
TWILIGHT - CHAPITRE 2 : TENTATION;ETATS UNIS;18/11/09;4,12
TWILIGHT - CHAPITRE 1 : FASCINATION;ETATS UNIS;07/01/09;2,79
TURBO;ETATS UNIS;16/10/13;2,47
TUCHE 2 : LE REVE AMERICAIN (LES);FRANCE;03/02/16;4,6
TUCHE (LES);FRANCE;01/07/11;1,53
TU VEUX OU TU VEUX PAS;FRANCE / BELGIQUE;01/10/14;1,08
TRUE GRIT;ETATS UNIS;23/02/11;1,41
TRON L'HERITAGE;ETATS UNIS;09/02/11;1,19
TROLLS (LES);ETATS UNIS;19/10/16;2,74
TROIE;GRANDE BRETAGNE;13/05/04;2,73
TRANSPORTEUR 3 (LE);FRANCE;26/11/08;1,35
TRANSPORTEUR 2 (LE);FRANCE;03/08/05;1,23
TRANSFORMERS THE LAST KNIGHT;US;28/06/17;1,42
TRANSFORMERS 3 : LA FACE CACHEE DE LA LUNE;ETATS UNIS;29/06/11;2,62
TRANSFORMERS 2 LA REVANCHE;ETATS UNIS;24/06/09;2,27
TRANSFORMERS : RISE OF THE BEASTS;US;07/06/23;1,14
TRANSFORMERS : L'ÂGE DE L'EXTINCTION;ETATS UNIS;16/07/14;2,34
TRANSFORMERS;ETATS UNIS;25/07/07;1,98
TOY STORY 4;USA;26/06/19;4,52
TOY STORY 3;ETATS UNIS;14/07/10;4,26
TOUT POUR PLAIRE;FRANCE / BELGIQUE;16/03/05;1,44
TOUT LE MONDE DEBOUT;FR;14/03/18;2,42
TOUT CE QUI BRILLE;FRANCE;24/03/10;1,42
TOUS EN SCENE 2;US;22/12/2021;1,09
TOUS EN SCENE 2;US;22/12/21;1,17
TOUS EN SCENE;US;25/01/17;3,61
TOTAL RECALL : MEMOIRES PROGRAMMEES;ETATS UNIS;15/08/12;1,28
TOP GUN : MAVERICK;US;25/05/22;6,69
TOMB RAIDER;GB;14/03/18;1,26
TITEUF, LE FILM;FRANCE / SUISSE;06/04/11;1,27
TITANIC;ETATS UNIS;07/01/98;1,14
TIRAILLEURS;FR / SN;04/01/23;1,19
TIME OUT;ETATS UNIS;23/11/11;1,05
THOR RAGNAROK;US;25/10/17;2,46
THOR : LOVE AND THUNDER;US;13/07/22;2,86
THOR : LE MONDE DES TENEBRES;ETATS UNIS;30/10/13;2,29
THOR;ETATS UNIS;27/04/11;1,73
THE TOWN;ETATS UNIS;15/09/10;1,08
THE SOCIAL NETWORK;ETATS UNIS;13/10/10;1,44
THE REVENANT;ETATS UNIS;24/02/16;3,84
THE KARATE KID;ETATS UNIS;18/08/10;1,28
THE ISLAND;ETATS UNIS;17/08/05;1,55
THE GRAND BUDAPEST HOTEL;ETATS UNIS;26/02/14;1,47
THE GHOST WRITER;FRANCE / ALLEMAGNE / GRANDE BRETAGNE;03/03/10;1,05
THE DARK KNIGHT RISES;GRANDE BRETAGNE;25/07/12;4,41
THE DARK KNIGHT LE CHEVALIER NOIR;ETATS UNIS;13/08/08;3
THE BATMAN;GB;02/03/22;3,04
THE ARTIST;FRANCE;12/10/11;1,58
THE ARTIST;FRANCE;12/10/11;1,58
THE AMAZING SPIDER-MAN : LE DESTIN D'UN HÉROS;ETATS UNIS;30/04/14;2,31
THE AMAZING SPIDER-MAN;ETATS UNIS;04/07/12;2,54
TETE EN FRICHE (LA);FRANCE;02/06/10;1,27
TERMINATOR RENAISSANCE;ETATS UNIS;03/06/09;1,55
TERMINATOR 3 : LE SOULEVEMENT DES MACHINES;ETATS UNIS;06/08/03;3,19
TERMINATOR : GENISYS;ETATS UNIS;01/07/15;1,43
TERMINAL (LE);ETATS UNIS;15/09/04;1,14
TENET;GB;26/08/20;2,35
TED 2;ETATS UNIS;05/08/15;1,14
TED;ETATS UNIS;10/10/12;1,38
TAXI 5;FR;11/04/18;3,65
TAXI 4;France;14/02/07;4,55
TAXI 3;FRANCE;29/01/03;6,11
TARZAN;GRANDE BRETAGNE;06/07/16;1,38
TANGUY, LE RETOUR;FR;10/04/19;1,03
TAKEN 3;FRANCE;21/01/15;2,61
TAKEN 2;FRANCE;03/10/12;2,91
TAKEN;France;27/02/08;1,02
TAIS-TOI;FRANCE / ITALIE;22/10/03;3,03
SWEENEY TODD LE DIABOLIQUE BARBIER DE FLEET STREET;ETATS UNIS;23/01/08;1,05
SUR LES CHEMINS NOIRS;FR;22/03/23;1,06
SUR LE CHEMIN DE L'ECOLE;FRANCE;25/09/13;1,17
SUR LA PISTE DU MARSUPILAMI;FRANCE;04/04/12;5,3
SUPERMAN RETURNS;ETATS UNIS;12/07/06;1,46
SUPERCONDRIAQUE;FRANCE / BELGIQUE;26/02/14;5,27
SUPER MARIO BROS. LE FILM;US;05/04/23;7,25
SUPER HEROS MALGRE LUI;US;02/02/22;1,8
SUPER 8;ETATS UNIS;03/08/11;1,53
SULLY;ETATS UNIS;30/11/16;1,11
SUICIDE SQUAD;ETATS UNIS;03/08/16;2,28
STARSKY ET HUTCH;ETATS UNIS;21/04/04;1,51
STARS 80;FRANCE;24/10/12;1,83
STAR WARS LES DERNIERS JEDI;US;13/12/17;1,73
STAR WARS LES DERNIERS JEDI;US;13/12/17;5,35
STAR WARS : EPISODE III - LA REVANCHE DES SITHS;ETATS UNIS;18/05/05;7,2
STAR WARS : EPISODE 9, L'ASCENSION DE SKYWALKER;US;18/12/19;1,69
STAR WARS : EPISODE 9, L'ASCENSION DE SKYWALKER;USA;18/12/19;4,37
STAR WARS : EPISODE 7, LE REVEIL DE LA FORCE;ETATS UNIS;16/12/15;3
STAR WARS : EPISODE 7, LE REVEIL DE LA FORCE;ETATS UNIS;16/12/15;7,33
SPLIT;US;22/02/17;1,79
SPIDER-MAN NO WAY HOME;US;15/12/2021;2,09
SPIDER-MAN NO WAY HOME;US;15/12/21;4,59
SPIDER-MAN 3;ETATS UNIS;01/05/07;6,32
SPIDER-MAN 2;ETATS UNIS;14/07/04;5,23
SPIDER-MAN : FAR FROM HOME;USA;03/07/19;3,23
SPIDER-MAN : ACROSS THE SPIDER-VERSE;US;31/05/23;1,94
SPIDER MAN HOMECOMING;US;12/07/17;2,32
SOUVENIRS (LES);FRANCE / BELGIQUE;14/01/15;1,06
SOUS LES JUPES DES FILLES;FRANCE;04/06/14;1,36
SOURIS CITY;ETATS UNIS;29/11/06;1,04
SONIC LE FILM;US;12/02/20;2,12
SONIC 2 LE FILM;US;30/03/22;2,25
SOLO : A STAR WARS STORY;US;23/05/18;1,37
SMILE;AU;28/09/22;1,23
SLUMDOG MILLIONAIRE;GRANDE BRETAGNE;14/01/09;2,7
SKYFALL;GRANDE BRETAGNE;26/10/12;6,81
SINBAD: LA LEGENDE DES SEPT MERS;ETATS UNIS;09/07/03;1,25
SIN CITY;ETATS UNIS;01/06/05;1,23
SIMPSON LE FILM (LES);ETATS UNIS;25/07/07;3,55
SIMONE LE VOYAGE DU SIECLE;FR;12/10/22;2,3
SHUTTER ISLAND;ETATS UNIS;24/02/10;3,11
SHREK LE TROISIEME;ETATS UNIS;13/06/07;5,55
SHREK 4, IL ÉTAIT UNE FIN;ETATS UNIS;30/06/10;4,63
SHREK 2;ETATS UNIS;23/06/04;7,14
SHERLOCK HOLMES : JEU D'OMBRES;GRANDE BRETAGNE;25/01/12;2,39
SHERLOCK HOLMES;GRANDE BRETAGNE;03/02/10;2,15
SHAZAM !;USA;03/04/19;1,07
SHAUN LE MOUTON;GRANDE BRETAGNE;01/04/15;1,06
SHANG-CHI ET LA LEGENDE DES DIX ANNEAUX;US;01/09/21;1,38
SEXY DANCE 4 : MIAMI HEAT;ETATS UNIS;08/08/12;1,13
SEX AND THE CITY LE FILM;ETATS UNIS;28/05/08;1,99
SEX AND THE CITY 2;ETATS UNIS;02/06/10;1,31
SEVEN SISTERS;GB;30/08/17;1,86
SEUL SUR MARS;ETATS UNIS;21/10/15;2,52
SEPT VIES;ETATS UNIS;14/01/09;1,11
SENTIMENTS (LES);FRANCE;05/11/03;1,14
SENS DE LA FETE (LE);FR;04/10/17;3,02
SEIGNEURS (LES);FRANCE;26/09/12;2,73
SEIGNEUR DES ANNEAUX (LE) - LES DEUX TOURS;NOUVELLE ZELANDE;18/12/02;2,57
SECRET DE TARABITHIA (LE);ETATS UNIS;28/03/07;1,05
SECRET DE BROKEBACK MOUNTAIN (LE);ETATS UNIS;18/01/06;1,32
SCREAM VI;US;08/03/23;1,19
SCREAM 4;ETATS UNIS;13/04/11;1,07
SCOOBY-DOO 2 - LES MONSTRES SE DECHAINENT;ETATS UNIS;07/04/04;1,37
SCHTROUMPFS 2 (LES);ETATS UNIS;31/07/13;2,25
SCHTROUMPFS (LES);ETATS UNIS;03/08/11;2,81
SANTA ET CIE;FR / BE;06/12/17;1,65
SANS IDENTITE;ALLEMAGNE / GRANDE BRETAGNE / FRANCE;02/03/11;1
SAN ANDREAS;ETATS UNIS;27/05/15;1,15
SAMBA;FRANCE;15/10/14;3,15
SALT;ETATS UNIS;25/08/10;1,47
SAISONS (LES);FRANCE;27/01/16;1,02
SAHARA;FR / CA;01/02/17;1,13
SAFARI;FRANCE;01/04/09;1,96
RRRRRRR !!!;FRANCE;28/01/04;1,67
ROIS DE LA GLISSE (LES);ETATS UNIS;24/10/07;1,51
ROI ARTHUR (LE);ETATS UNIS;04/08/04;1,6
ROGUE ONE A STAR WARS STORY;US;14/12/16;1,06
ROGUE ONE A STAR WARS STORY;ETATS UNIS;14/12/16;3,92
ROCKY BALBOA;ETATS UNIS;24/01/07;1,15
ROCK N ROLL;FR;15/02/17;1,3
ROBOTS;ETATS UNIS;06/04/05;1,1
ROBIN DES BOIS;GRANDE BRETAGNE;12/05/10;2,39
RIVIERES POURPRES 2 (LES);FRANCE / ITALIE / GRANDE BRETAGNE;18/02/04;2,08
RIRE ET CHATIMENT;FRANCE;22/01/03;1,13
RIO 2;ETATS UNIS;09/04/14;3,26
RIO;ETATS UNIS;13/04/11;2,44
RIEN A DECLARER;FRANCE / BELGIQUE;02/02/11;8,1
RETOUR DU ROI (LE);NOUVELLE ZELANDE;17/12/03;2,22
RETOUR DU ROI (LE);NOUVELLE ZELANDE;17/12/03;5,15
RETOUR CHEZ MA MERE;FRANCE;01/06/16;2,2
RENARD ET L'ENFANT (LE);France;12/12/07;1,49
REINE DES NEIGES (LA);ETATS UNIS;04/12/13;3,8
REBELLES DE LA FORET (LES);ETATS UNIS;18/10/06;1,57
REBELLE;ETATS UNIS;01/08/12;3,16
REAL STEEL;ETATS UNIS;19/10/11;1,08
READY PLAYER ONE;GB;28/03/18;2,28
RAY;ETATS UNIS;23/02/05;1,59
RATATOUILLE;ETATS UNIS;01/08/07;7,67
RANGO;ETATS UNIS;23/03/11;1,27
RALPH 2.0;USA;13/02/19;2,27
RAIPONCE;ETATS UNIS;01/12/10;3,17
RAID DINGUE;FR;01/02/17;4,56
RAFLE (LA);FRANCE / ALLEMAGNE / HONGRIE;10/03/10;2,88
RADIN !;FRANCE;28/09/16;2,95
QUANTUM OF SOLACE;GRANDE BRETAGNE;31/10/08;3,7
QU'EST-CE QU'ON A TOUS FAIT AU BON DIEU ?;FR;06/04/22;2,45
QU'EST-CE QU'ON A FAIT AU BON DIEU ?;FRANCE;16/04/14;12,34
QU'EST-CE QU'ON A ENCORE FAIT AU BON DIEU ?;FR / BE;30/01/19;6,72
PUBLIC ENEMIES;ETATS UNIS;08/07/09;1,57
PROMETHEUS;ETATS UNIS;30/05/12;1,84
PROJET X;ETATS UNIS;14/03/12;1,85
PROFS 2 (LES);FRANCE / BELGIQUE;01/07/15;3,49
PROFS (LES);FRANCE;17/04/13;3,95
PRIX À PAYER (LE);France;04/04/07;1,34
PRISONERS;ETATS UNIS;09/10/13;1,13
PRINCESSE ET LA GRENOUILLE (LA);ETATS UNIS;27/01/10;3,66
PRINCE OF PERSIA : LES SABLES DU TEMPS;ETATS UNIS;26/05/10;2,11
PRETE-MOI TA MAIN (EX : RENT A WIFE);FRANCE;01/11/06;3,45
PRÉNOM (LE);FRANCE;25/04/12;3,34
PREMIÈRE ÉTOILE (LA);FRANCE;25/03/09;1,65
PREMIERE ANNEE;FR;12/09/18;1,01
PREMIER JOUR DU RESTE DE TA VIE (LE);France;23/07/08;1,2
PREDICTIONS;AUSTRALIE;01/04/09;1,4
POURQUOI J'AI (PAS) MANGE MON PERE;FRANCE / ITALIE;08/04/15;2,41
POUPEES RUSSES (LES);FRANCE / GRANDE BRETAGNE;15/06/05;2,84
POTICHE;FRANCE / BELGIQUE;10/11/10;2,25
POPULAIRE;FRANCE  / BELGIQUE;28/11/12;1,01
POLISSE;FRANCE;19/10/11;2,32
POLE EXPRESS (LE);ETATS UNIS;01/12/04;1,37
POKEMON DETECTIVE PIKACHU;GB;08/05/19;1,69
PODIUM;FRANCE / BELGIQUE;11/02/04;3,54
PLANETE DES SINGES : LES ORIGINES (LA);ETATS UNIS;10/08/11;3,26
PLANES 2;ETATS UNIS;23/07/14;1,02
PLANES;ETATS UNIS;09/10/13;1,63
PIRATES DES CARAIBES: LA VENGEANCE DE SALAZAR;US;24/05/17;3,59
PIRATES DES CARAIBES, LE SECRET DU COFFRE MAUDIT;ETATS UNIS;02/08/06;6,51
PIRATES DES CARAIBES, JUSQU'AU BOUT DU MONDE;ETATS UNIS;23/05/07;5,64
PIRATES DES CARAIBES : LA MALEDICTION DU BLACK PEARL;ETATS UNIS;13/08/03;3,77
PIRATES DES CARAIBES : LA FONTAINE DE JOUVENCE;ETATS UNIS / GRANDE BRETAGNE;18/05/11;4,67
PIERRE LAPIN;US;04/04/18;1,74
PHENOMENES;ETATS UNIS;11/06/08;1,3
PETITS MOUCHOIRS (LES);FRANCE;20/10/10;5,33
PETIT PRINCE (LE);FRANCE / ITALIE;29/07/15;1,93
PETIT NICOLAS (LE);FRANCE / BELGIQUE;30/09/09;5,54
PETER PAN;ETATS UNIS;04/02/04;1,42
PERSÉPOLIS;FRANCE;27/06/07;1,24
PERE ET FILS;FRANCE / CANADA;20/08/03;1,15
PERCY JACKSON LE VOLEUR DE FOUDRE;ETATS UNIS;10/02/10;1,23
PERCY JACKSON : LA MER DES MONSTRES;ETATS UNIS;14/08/13;1,47
PENTAGON PAPERS;US;24/01/18;1,34
PAW PATROL : LA SUPER PATROUILLE - LE FILM;US;11/10/23;2,31
PAW PATROL - LE FILM - LA PAT PATROUILLE;US;11/08/21;1,47
PAULETTE;FRANCE;16/01/13;1,03
PATTAYA;FRANCE;24/02/16;1,95
PATIENTS;FR;01/03/17;1,27
PASSION DU CHRIST (LA);ETATS UNIS;31/03/04;1,54
PARIS;France;20/02/08;1,75
PARASITE;KS;05/06/19;1,71
PARANORMAL ACTIVITY;ETATS UNIS;02/12/09;1,05
PAPA OU MAMAN 2;FRANCE / BELGIQUE;07/12/16;1,2
PAPA OU MAMAN;FRANCE;04/02/15;2,89
PALAIS ROYAL!;FRANCE / GRANDE BRETAGNE;23/11/05;2,38
PADDINGTON 2;FR;06/12/17;1,31
PADDINGTON;FRANCE;03/12/14;2,2
PACIFIC RIM;ETATS UNIS;17/07/13;1,02
OSS 117 RIO NE RÉPOND PLUS;FRANCE;15/04/09;2,52
OSS 117 - LE CAIRE, NID D'ESPIONS;FRANCE;19/04/06;2,3
OSS 117 - ALERTE ROUGE EN AFRIQUE NOIRE;FR;04/08/21;1,62
OPPENHEIMER;US;19/07/23;4,46
OPÉRATION CASSE-NOISETTE;ETATS UNIS;06/08/14;1,2
ONCE UPON A TIME... IN HOLLYWOOD;USA;14/08/19;2,64
OLIVER TWIST;FRANCE / REPUBLIQUE TCHEQUE / GRANDE BRETAGNE;19/10/05;1,45
ODYSSÉE (L');FRANCE;12/10/16;1,22
OCÉANS;FRANCE;27/01/10;2,86
OCEAN'S TWELVE;ETATS UNIS;15/12/04;2,11
OCEAN'S 13;ETATS UNIS;20/06/07;1,64
OBLIVION;ETATS UNIS;10/04/13;1,33
NUIT AU MUSEE 2;ETATS UNIS;20/05/09;1,63
NUIT AU MUSEE (LA);ETATS UNIS;07/02/07;2,27
NUIT AU MUSEE : LE SECRET DES PHARAONS (LA);ETATS UNIS;04/02/15;1,59
NOVEMBRE;FR;05/10/22;2,38
NOUVELLES AVENTURES D'ALADIN (LES);FRANCE;14/10/15;4,43
NOUVELLE GUERRE DES BOUTONS (LA);FRANCE;21/09/11;1,54
NOUVEAUX HEROS (LES);ETATS UNIS;11/02/15;1,66
NOUS FINIRONS ENSEMBLE;FR;01/05/19;2,79
NOS VOISINS LES HOMMES;ETATS UNIS;05/07/06;1,51
NOS JOURS HEUREUX (EX:CES JOURS HEUREUX);FRANCE;28/06/06;1,47
NOS ÉTOILES CONTRAIRES;ETATS UNIS;20/08/14;1,04
NON-STOP;GRANDE BRETAGNE;26/02/14;1,22
NOE;ETATS UNIS;09/04/14;1,32
NOCES REBELLES (LES);ETATS UNIS;21/01/09;1,14
NOCES FUNEBRES DE TIM BURTON (LES);GRANDE BRETAGNE;19/10/05;1,36
NINJA TURTLES;ETATS UNIS;15/10/14;1,79
NIGHT AND DAY;ETATS UNIS;28/07/10;1,76
NICKY LARSON ET LE PARFUM DE CUPIDON;FR;06/02/19;1,68
NEUILLY SA MERE, SA MERE;FR;08/08/18;1,15
NEUILLY SA MERE !;FRANCE;12/08/09;2,54
NE LE DIS À PERSONNE;FRANCE;01/11/06;2,73
NAPOLEON;US;22/11/23;1,6
MYSTIC RIVER;ETATS UNIS;15/10/03;1,15
MYSTERE DE LA CHAMBRE JAUNE (LE);FRANCE / BELGIQUE;11/06/03;1,06
MUNICH;ETATS UNIS;25/01/06;1,04
MR & MRS SMITH;ETATS UNIS;27/07/05;2,96
MOURIR PEUT ATTENDRE;GB;06/10/21;4
MORT DANS LA PEAU (LA);ETATS UNIS;08/09/04;1,14
MONUMENTS MEN;ETATS UNIS;12/03/14;1,29
MONSTRES CONTRE ALIENS;ETATS UNIS;01/04/09;1,26
MONSTRES ACADEMY;ETATS UNIS;10/07/13;2,08
MONDES DE RALPH (LES);ETATS UNIS;05/12/12;1,2
MONDE FANTASTIQUE D'OZ (LE);ETATS UNIS;13/03/13;1,56
MONDE DE NEMO (LE);ETATS UNIS;26/11/03;1,29
MONDE DE NEMO (LE);ETATS UNIS;26/11/03;7,94
MONDE DE NARNIA (LE) - CHAPITRE 1 - LE LION, LA SORCIERE BLANCHE ET L'ARMOIRE MAGIQUE;ETATS UNIS;21/12/05;2,26
MONDE DE NARNIA (LE) - CHAPITRE 1 - LE LION, LA SORCIERE BLANCHE ET L'ARMOIRE MAGIQUE;ETATS UNIS;21/12/05;2,87
MONDE DE NARNIA (LE ) - CHAPITRE 2 - LE PRINCE CASPIAN;ETATS UNIS;25/06/08;3,05
MONDE DE NARNIA - CHAPITRE 3 - L'ODYSSEE DU PASSEUR D'AURORE (LE);ETATS UNIS;08/12/10;2,33
MONDE DE DORY (LE);ETATS UNIS;22/06/16;3,37
MON PETIT DOIGT M'A DIT;FRANCE;13/04/05;1,26
MON CRIME;FR;08/03/23;1,1
MON BEAU PERE, MES PARENTS ET MOI;ETATS UNIS;16/02/05;1,66
MOMMY;CANADA;08/10/14;1,13
MOMIE : LA TOMBE DE L'EMPEREUR DRAGON (LA );ETATS UNIS;06/08/08;1,56
MOME (LA);France / REPUBLIQUE TCHEQUE / GRANDE BRETAGNE;14/02/07;5,22
MOLIÈRE;France;31/01/07;1,22
MOI, MOCHE ET MECHANT 2;ETATS UNIS;26/06/13;4,65
MOI, MOCHE ET MECHANT;ETATS UNIS;06/10/10;3,01
MOI MOCHE ET MECHANT 3;US;05/07/17;5,74
MOI CESAR, 10 ANS1/2, 1M39;FRANCE;09/04/03;1,06
MOBIUS;FRANCE / LUXEMBOURG / BELGIQUE;27/02/13;1,1
MISSION-G;ETATS UNIS;14/10/09;1,37
MISSION IMPOSSIBLE FALL OUT;US;01/08/18;3,02
MISSION IMPOSSIBLE DEAD RECKONING PARTIE 1;US;12/07/23;2,62
MISSION : IMPOSSIBLE, ROGUE NATION;ETATS UNIS;12/08/15;2,8
MISSION : IMPOSSIBLE PROTOCOLE FANTOME;ETATS UNIS;14/12/11;1,75
MISSION : IMPOSSIBLE 3;ETATS UNIS;03/05/06;1,91
MISS PEREGRINE ET LES ENFANTS PARTICULIERS;GRANDE BRETAGNE;05/10/16;2,71
MIRACULOUS LE FILM;FR;05/07/23;1,65
MINUSCULE, LA VALLÉE DES FOURMIS PERDUES;FRANCE / BELGIQUE;29/01/14;1,5
MINUIT A PARIS;ESPAGNE;11/05/11;1,73
MINIONS (LES);ETATS UNIS;08/07/15;6,66
MINCE ALORS !;FRANCE;28/03/12;1,45
MILLION DOLLAR BABY;ETATS UNIS;23/03/05;3,15
MILLENIUM : LES HOMMES QUI N'AIMAIENT PAS LES FEMMES;ETATS UNIS;18/01/12;1,08
MILLENIUM;SUEDE;13/05/09;1,22
MICMACS À TIRE-LARIGOT;FRANCE;28/10/09;1,26
MICHAEL JACKSON'S THIS IS IT;ETATS UNIS;28/10/09;1,55
MIAMI VICE - DEUX FLICS A MIAMI;ETATS UNIS;16/08/06;1,57
MESRINE : L'INSTINCT DE MORT;France / Canada / Italie;22/10/08;2,26
MESRINE : L'ENNEMI PUBLIC N°1;France;19/11/08;1,5
MEN IN BLACK 3;ETATS UNIS;23/05/12;2,12
MEDECIN DE CAMPAGNE;FRANCE;23/03/16;1,51
MAUVAISE EDUCATION (LA);ESPAGNE;12/05/04;1,07
MAUVAIS ESPRIT;FRANCE / ESPAGNE;05/11/03;1,09
MATRIX REVOLUTIONS;ETATS UNIS;05/11/03;3,48
MATRIX RELOADED;ETATS UNIS;16/05/03;5,64
MATCH POINT;GRANDE BRETAGNE;26/10/05;1,45
MARIE ANTOINETTE;ETATS UNIS;24/05/06;1,22
MARIAGES !;FRANCE;21/04/04;1,96
MARGUERITE;FRANCE / REPUBLIQUE TCHEQUE/ BELGIQUE;16/09/15;1,01
MARCHE DE L'EMPEREUR (LA);FRANCE;26/01/05;1,86
MANOIR HANTE ET LES 999 FANTOMES (LE);ETATS UNIS;18/02/04;1,08
MAN OF STEEL;CANADA;19/06/13;2,32
MAMMA MIA ! LE FILM;GRANDE BRETAGNE;10/09/08;1,57
MALEFIQUE : LE POUVOIR DU MAL;USA;16/10/19;2,67
MALÉFIQUE;GRANDE BRETAGNE / ETATS UNIS;28/05/14;2
MALABAR PRINCESS;FRANCE;03/03/04;1,46
MAJORDOME (LE);ETATS UNIS;11/09/13;1,95
MAISON DU BONHEUR (LA);FRANCE;07/06/06;1,14
MAISON DE RETRAITE;US;16/02/22;2,04
MAGIC IN THE MOONLIGHT;GRANDE BRETAGNE;22/10/14;1,04
MADAGASCAR 3 : BONS BAISERS D'EUROPE;ETATS UNIS;06/06/12;3,41
MADAGASCAR 2 : LA GRANDE EVASION;ETATS UNIS;03/12/08;4,35
MADAGASCAR;ETATS UNIS;22/06/05;3,18
MAD MAX : FURY ROAD;AUSTRALIE;14/05/15;2,36
MAC (LE);FRANCE;17/02/10;1,46
MA PART DU GATEAU;FRANCE;16/03/11;1,03
M. PEABODY ET SHERMAN : LES VOYAGES DANS LE TEMPS;ETATS UNIS;12/02/14;1,42
LYONNAIS (LES);FRANCE;30/11/11;1,09
LUCY;FRANCE;06/08/14;5,2
LUCKY LUKE;FRANCE;21/10/09;1,88
LOUP DE WALL STREET (LE);ETATS UNIS;25/12/13;1,02
LOST IN TRANSLATION;ETATS UNIS;07/01/04;1,34
LORD OF WAR;ETATS UNIS;04/01/06;1,31
LONE RANGER, NAISSANCE D'UN HEROS;ETATS UNIS;07/08/13;1,15
LOL (LAUGHING OUT LOUD);FRANCE;04/02/09;3,65
LOGAN;US;01/03/17;2,27
LIVRE DE LA JUNGLE 2 (LE);ETATS UNIS;05/02/03;3,31
LIVRE DE LA JUNGLE (LE);ETATS UNIS;13/04/16;3,65
LION;AU;22/02/17;1,79
LINCOLN;ETATS UNIS;30/01/13;1,36
LIGUE DES GENTLEMEN EXTRAORDINAIRES (LA);ETATS UNIS;01/10/03;1,02
LES VACANCES DU PETIT NICOLAS ;FRANCE;09/07/14;2,41
LES TUCHE 4;FR;08/12/21;1,95
LES TUCHE 3;FR;31/01/18;5,69
LES TROLLS 3;US;18/10/23;1,46
LES TROLLS 2 TOURNEE MONDIALE;US;14/10/20;1,01
LES TROIS MOUSQUETAIRES - MILADY;FR;13/12/23;1,68
LES TROIS MOUSQUETAIRES - D'ARTAGNAN;FR;05/04/23;3,44
LES TROIS FRÈRES, LE RETOUR ;FRANCE;12/02/14;2,24
LES SCHTROUMPFS ET LE VILLAGE PERDU;US;05/04/17;1,84
LES PINGOUINS DE MADAGASCAR ;ETATS UNIS;17/12/14;1,59
LES MISERABLES;FR;20/11/19;1,7
LES MINIONS 2 : IL ETAIT UNE FOIS GRU;US;06/07/22;3,92
LES INDESTRUCTIBLES 2;US;04/07/18;5,74
LES GARDIENS DE LA GALAXIE VOL 2;US;26/04/17;3,14
LES GARDIENS DE LA GALAXIE : VOLUME 3;US;03/05/23;3,45
LES GARDIENS DE LA GALAXIE ;ETATS UNIS;13/08/14;2,34
LES ETERNELS;US;03/11/21;1,71
LES CROODS 2 UNE NOUVELLE ERE;US;07/07/21;1,13
LES BODIN'S EN THAILANDE;FR;17/11/21;1,51
LES BLAGUES DE TOTO;FR / LUX / BE;05/08/20;1,06
LES BAD GUYS;FR;06/04/22;1,11
LES ANIMAUX FANTASTIQUES 3 LES SECRETS DE DUMBLEDORE;GB;13/04/22;2,77
LEGENDE DE ZORRO (LA);ETATS UNIS;26/10/05;2,15
LE VOYAGE DU DR DOLITTLE;US;05/02/20;1,32
LE ROI LION;USA;17/07/19;9,83
LE REGNE ANIMAL;FR;04/10/23;1,06
LE PARC DES MERVEILLES;USA;03/04/19;1,42
LE MANS 66;USA;13/11/19;1,1
LE LOUP ET LE LION;FR/CA;13/10/21;1,17
LE LOUP DE WALL STREET ;ETATS UNIS;25/12/13;2
LE LABYRINTHE: LE REMEDE MORTEL;US;07/02/18;2,85
LE LABYRINTHE ;ETATS UNIS;15/10/14;3,13
LE HOBBIT : LA BATAILLE DES CINQ ARMÉES ;NOUVELLE ZELANDE;10/12/14;4,07
LE GRINCH;US;28/11/18;2,05
LE GARCON ET LE HERON;JP;01/11/23;1,55
LE CROCODILE DU BOTSWANGA ;FRANCE;19/02/14;1,19
LE CHAT POTTE 2 : LA DERNIERE QUETE;US;07/12/22;1,02
LE CHAT POTTE 2 : LA DERNIERE QUETE;FR;07/12/22;1,92
LE BRIO;FR;22/11/17;1,05
LARGO WINCH 2;FRANCE / BELGIQUE / ALLEMAGNE;16/02/11;1,34
LARGO WINCH;FRANCE;17/12/08;1,12
LARA CROFT TOMB RAIDER, LE BERCEAU DE LA VIE;ETATS UNIS;20/08/03;1,22
LADYKILLERS;ETATS UNIS;09/06/04;1,25
LABYRINTHE : LA TERRE BRULEE (LE);ETATS UNIS;07/10/15;3,12
LA-HAUT;ETATS UNIS;29/07/09;4,41
LA VIE SCOLAIRE;FR;28/08/19;1,82
LA REINE DES NEIGES II;USA;20/11/19;6,74
LA REINE DES NEIGES ;ETATS UNIS;04/12/13;1,26
LA PLANETE DES SINGES SUPREMATIE;US;02/08/17;2,81
LA PLANETE DES SINGES : L'AFFRONTEMENT ;ETATS UNIS;30/07/14;3,78
LA PETITE SIRENE;US;24/05/23;1,73
LA NONNE 2;US;13/09/23;1,15
LA NONNE;US;19/09/18;1,39
LA MULE;USA;23/01/19;1,86
LA MOMIE;US;14/06/17;1,38
LA LA LAND;US;25/01/17;2,75
LA GRANDE AVENTURE LEGO ;ETATS UNIS;19/02/14;1,54
LA FRENCH ;FRANCE / BELGIQUE;03/12/14;1,33
LA FORME DE L'EAU;US;21/02/18;1,38
LA FAMILLE BÉLIER ;FRANCE / BELGIQUE;17/12/14;2,35
LA FAMILLE ADDAMS;USA;04/12/19;1,01
LA BELLE ET LA BÊTE ;FRANCE / ALLEMAGNE;12/02/14;1,83
LA BELLE ET LA BETE;GB / US;22/03/17;3,49
L'APPEL DE LA FORET;US;19/02/20;1,27
L ASCENSION;FR;25/01/17;1,12
KUNG FU PANDA 3;ETATS UNIS;30/03/16;2,58
KUNG FU PANDA 2;ETATS UNIS;15/06/11;2,7
KUNG FU PANDA;ETATS UNIS;09/07/08;3,27
KRYPTO ET LES SUPER-ANIMAUX;FR;27/07/22;1,17
KONG SKULL ISLAND;US;08/03/17;1,62
KIRIKOU ET LES BETES SAUVAGES;FRANCE;07/12/05;1,37
KINGSMAN LE CERCLE D'OR;GB;11/10/17;1,74
KINGSMAN : SERVICES SECRETS;GRANDE BRETAGNE / ETATS UNIS;18/02/15;1,67
KINGDOM OF HEAVEN;GRANDE BRETAGNE;04/05/05;1,28
KING KONG;ETATS UNIS;14/12/05;2,77
KILLERS OF THE FLOWER MOON;US;18/10/23;1,27
KILL BILL VOLUME 2;ETATS UNIS;17/05/04;1,47
KILL BILL VOL. 1;ETATS UNIS;26/11/03;1,55
KAIRA (LES);FRANCE;11/07/12;1,02
KAAMELOTT - PREMIER VOLET;FR;21/07/21;2,66
JUSTICE LEAGUE;GB;15/11/17;1,71
JUSTE LA FIN DU MONDE;CANADA / FRANCE;21/09/16;1,03
JURASSIC WORLD FALLEN KINGDOM;US;06/06/18;3,63
JURASSIC WORLD : LE MONDE D'APRES;GB;08/06/22;3,49
JURASSIC WORLD;ETATS UNIS;10/06/15;5,21
JUMPER;ETATS UNIS;20/02/08;1,15
JUMANJI BIENVENUE DANS LA JUNGLE;US;20/12/17;1,39
JUMANJI BIENVENUE DANS LA JUNGLE;US;20/12/17;2
JUMANJI : NEXT LEVEL;USA;04/12/19;2,42
JOYEUX NOEL;FRANCE / ALLEMAGNE / GRANDE BRETAGNE / BELGIQUE / ROUMANIE;09/11/05;1,86
JOYEUSE RETRAITE !;FR;20/11/19;1,2
JOUR OU LA TERRE S'ARRETA (LE);ETATS UNIS;10/12/08;1
JOUR D'APRES (LE);ETATS UNIS;26/05/04;2,68
JOKER;USA;09/10/19;5,57
JOHN WICK : CHAPITRE 4;US;22/03/23;1,05
JEUX D'ENFANTS;FRANCE / BELGIQUE;17/09/03;1,07
JEU (LE);FR;17/10/18;1,59
JEAN-PHILIPPE;FRANCE;05/04/06;1,22
JE VOUS TROUVE TRES BEAU (EX: LA FILLE DE L'EST);FRANCE;11/01/06;3,51
JE VERRAI TOUJOURS VOS VISAGES;FR;29/03/23;1,18
JE SUIS UNE LEGENDE;ETATS UNIS;19/12/07;1,03
JE SUIS UNE LEGENDE;ETATS UNIS;19/12/07;1,88
JASON BOURNE;ETATS UNIS;10/08/16;1,49
JAPPELOUP;FRANCE  / CANADA;13/03/13;1,82
JACKPOT;ETATS UNIS;07/05/08;1,05
J'ACCUSE;FR / IT;13/11/19;1,47
J. EDGAR;ETATS UNIS;11/01/12;1,45
IZNOGOUD;FRANCE;09/02/05;2,54
IVRESSE DU POUVOIR (EX:LA COMÉDIE DU POUVOIR);FRANCE / ALLEMAGNE;22/02/06;1,08
ITALIEN (L');FRANCE;14/07/10;1,11
IRON MAN 3;ETATS UNIS;24/04/13;4,31
IRON MAN 2;ETATS UNIS;28/04/10;2,58
IRON MAN;ETATS UNIS;30/04/08;2,04
INVISIBLES (LES);FR;09/01/19;1,34
INVICTUS;ETATS UNIS;13/01/10;3,17
INVASIONS BARBARES (LES);CANADA / FRANCE;24/09/03;1,19
INTOUCHABLES;FRANCE;02/11/11;2,83
INTOUCHABLES;FRANCE;02/11/11;16,67
INTOLERABLE CRUAUTE;ETATS UNIS;19/11/03;1,19
INTO THE WILD;ETATS UNIS;09/01/08;1,42
INTERSTELLAR;ETATS UNIS;05/11/14;2,58
INSIDE MAN;ETATS UNIS;12/04/06;1,18
INSEPARABLES;FR;04/09/19;1,04
INSAISISSABLES 2;ETATS UNIS;27/07/16;2,1
INSAISISSABLES;ETATS UNIS;31/07/13;3,01
INGLOURIOUS BASTERDS;ETATS UNIS;19/08/09;2,83
INFILTRES (LES);ETATS UNIS;29/11/06;1,48
INFIDÈLES (LES);FRANCE;29/02/12;2,26
INDIGÈNES;FRANCE / BELGIQUE;27/09/06;3,02
INDIANA JONES ET LE ROYAUME DU CRANE DE CRISTAL;ETATS UNIS;21/05/08;4,21
INDIANA JONES ET LE CADRAN DE LA DESTINEE;US;28/06/23;2,96
INDESTRUCTIBLES (LES);ETATS UNIS;24/11/04;4,92
INDEPENDENCE DAY  : RESURGENCE;ETATS UNIS;20/07/16;1,29
INCROYABLE HULK (L');ETATS UNIS;23/07/08;1,03
INCOGNITO;FRANCE / BELGIQUE;29/04/09;1,24
INCEPTION;GRANDE BRETAGNE;21/07/10;4,94
IMMORTEL (L');FRANCE;24/03/10;1,13
IMITATION GAME;GRANDE BRETAGNE / ETATS UNIS;28/01/15;1,09
IL ETAIT UNE FOIS;ETATS UNIS;28/11/07;2,19
IL A DEJA TES YEUX;FR;18/01/17;1,39
I, ROBOT;ETATS UNIS;28/07/04;2,09
HUNGER GAMES : LA REVOLTE, 2e PARTIE;ETATS UNIS;18/11/15;2,77
HUNGER GAMES : LA BALLADE DU SERPENT ET DE L'OISEAU CHANTEUR;US;15/11/23;1,64
HUNGER GAMES : L'EMBRASEMENT;ETATS UNIS;27/11/13;2,92
HUNGER GAMES - LA RÉVOLTE PARTIE 1;ETATS UNIS;19/11/14;3,12
HUNGER GAMES;ETATS UNIS;21/03/12;1,73
HULK;ETATS UNIS;02/07/03;1,67
HOTEL TRANSYLVANIE 3 : DES VACANCES MONSTRUEUSES;US;25/07/18;3,07
HOTEL TRANSYLVANIE 2;ETATS UNIS;07/10/15;2,3
HOTEL TRANSYLVANIE;ETATS UNIS;13/02/13;1,7
HORTON;ETATS UNIS;02/04/08;1,68
HORS NORMES;FR;23/10/19;2,08
HORS DE PRIX;FRANCE;13/12/06;1,21
HOMME QUI VOULAIT VIVRE SA VIE (L');FRANCE;03/11/10;1,18
HOLLYWOO;FRANCE;07/12/11;1,88
HOBBIT : UN VOYAGE INATTENDU (LE);NOUVELLE ZELANDE;12/12/12;1,18
HOBBIT : UN VOYAGE INATTENDU (LE);NOUVELLE ZELANDE;12/12/12;3,35
HOBBIT : LA DESOLATION DE SMAUG (LE);ETATS UNIS;11/12/13;3,8
HITCH EXPERT EN SEDUCTION;ETATS UNIS;16/03/05;2,06
HIGH SCHOOL MUSICAL 3 : NOS ANNEES LYCEE;ETATS UNIS;22/10/08;1,88
HARRY POTTER ET LES RELIQUES DE LA MORT (2E PARTIE);GRANDE BRETAGNE;13/07/11;6,52
HARRY POTTER ET LES RELIQUES DE LA MORT (1ÈRE PARTIE);GRANDE BRETAGNE;24/11/10;5,51
HARRY POTTER ET LE PRISONNIER D'AZKABAN;GRANDE BRETAGNE;02/06/04;7,08
HARRY POTTER ET LE PRINCE DE SANG-MELE;GRANDE BRETAGNE;15/07/09;6,09
HARRY POTTER ET LA COUPE DE FEU;GRANDE BRETAGNE;30/11/05;7,04
HARRY POTTER ET LA CHAMBRE DES SECRETS;ETATS UNIS;04/12/02;1,59
HARRY POTTER ET L'ORDRE DU PHENIX;GRANDE BRETAGNE;11/07/07;6,21
HAPPY FEET;ETATS UNIS;06/12/06;1,1
HAPPINESS THERAPY;ETATS UNIS;30/01/13;1,07
HANCOCK;ETATS UNIS;09/07/08;3,07
GUERRE DES MONDES (LA);ETATS UNIS;06/07/05;3,89
GUERRE DES BOUTONS (LA);FRANCE;14/09/11;1,48
GREEN BOOK SUR LES ROUTES DU SUD;USA;23/01/19;2,09
GRAVITY;GRANDE BRETAGNE;23/10/13;4,08
GRAND BAIN (LE);FR;24/10/18;4,21
GRAN TURISMO;US;09/08/23;1,18
GRAN TORINO;ETATS UNIS;25/02/09;3,44
GOTHIKA;ETATS UNIS;07/01/04;1,52
GOOD BYE LENIN;ALLEMAGNE;10/09/03;1,3
GONE GIRL;ETATS UNIS;08/10/14;1,91
GODZILLA;ETATS UNIS;14/05/14;1,37
GLASS;USA;16/01/19;1,26
GHOST RIDER;ETATS UNIS;21/02/07;1,07
GHOST IN THE SHELL;US;29/03/17;1,02
GET OUT;US;03/05/17;1,15
GATSBY LE MAGNIFIQUE;AUSTRALIE;15/05/13;1,58
GARFIELD, LE FILM;ETATS UNIS;11/08/04;1,22
GARFIELD 2;ETATS UNIS;19/07/06;1,27
GARÇONS ET GUILLAUME, A TABLE ! (LES);FRANCE;20/11/13;2,2
GANGS OF NEW YORK;ETATS UNIS;08/01/03;2,15
GANG DE REQUINS;ETATS UNIS;13/10/04;2,97
GAMINS (LES);FRANCE;17/04/13;1,65
GAINSBOURG (VIE HEROÏQUE);FRANCE;20/01/10;1,2
FRERES GRIMM (LES);GRANDE BRETAGNE;05/10/05;1,49
FRERE DES OURS;ETATS UNIS;28/01/04;3,53
FOLLE HISTOIRE DE MAX ET LEON (LA);FRANCE / BELGIQUE;01/11/16;1,22
FLEUR DU MAL (LA);FRANCE;19/02/03;1,04
FISTON;FRANCE;12/03/14;1,93
FILS A JO (LE);FRANCE;12/01/11;1,2
FILLE DU PUISATIER (LA);FRANCE;20/04/11;1,4
FERDINAND;US;20/12/17;1,06
FERDINAND;US;20/12/17;1,42
FEMMES DU 6EME ETAGE (LES);FRANCE;16/02/11;2,28
FAUTEUILS D'ORCHESTRE;FRANCE;15/02/06;1,93
FAUBOURG 36;France / Allemagne / REPUBLIQUE TCHEQUE;24/09/08;1,32
FATAL;CANADA  / FRANCE;16/06/10;1,21
FAST AND FURIOUS 9;GB;14/07/21;1,99
FAST AND FURIOUS 8;US;12/04/17;3,87
FAST & FURIOUS X;GB;17/05/23;2,27
FAST & FURIOUS 7;ETATS UNIS;01/04/15;4,63
FAST & FURIOUS 6;ETATS UNIS;22/05/13;2,99
FAST & FURIOUS 5;ETATS UNIS;04/05/11;2,52
FAST & FURIOUS 4;ETATS UNIS;08/04/09;1,78
FAST & FURIOUS 2;ETATS UNIS;18/06/03;1,79
FAST & FURIOUS : HOBBS & SHAW;USA;07/08/19;2,46
FANFAN LA TULIPE;FRANCE;14/05/03;1,25
FAMILLE BELIER (LA);FRANCE / BELGIQUE;17/12/14;5,35
FAILLE (LA);ETATS UNIS;09/05/07;1,12
FAHRENHEIT 9/11;ETATS UNIS;07/07/04;2,33
EYJAFJALLOJOKULL;FRANCE;02/10/13;1,77
EXPENDABLES 3;ETATS UNIS;20/08/14;1,06
EXPENDABLES 2 : UNITE SPECIALE;ETATS UNIS;22/08/12;1,96
EXPENDABLES : UNITE SPECIALE;ETATS UNIS;18/08/10;1,65
ETRANGE HISTOIRE DE BENJAMIN BUTTON (L');ETATS UNIS;04/02/09;2,61
ESPACE DETENTE;FRANCE;02/02/05;1,77
ERAGON;ETATS UNIS;20/12/06;1,21
ERAGON;ETATS UNIS;20/12/06;1,58
EPOUSE MOI MON POTE;FR;25/10/17;2,47
EPIC : LA BATAILLE DU ROYAUME SECRET;ETATS UNIS;22/05/13;1,21
ENTRE LES MURS;France;24/09/08;1,58
ENSEMBLE, C'EST TOUT;France;21/03/07;2,31
ENQUETE CORSE (L');FRANCE;06/10/04;2,54
ENFIN VEUVE;France;16/01/08;2,25
ENCANTO, LA FANTASTIQUE FAMILLE MADRIGAL;US;24/11/21;2,21
EN ROUTE !;ETATS UNIS;15/04/15;1,22
EN EAUX TROUBLES;US;22/08/18;1,62
EN EAUX TRES TROUBLES;CN;02/08/23;1,65
EN CORPS;CA;30/03/22;1,39
ELYSIUM;ETATS UNIS;14/08/13;1,52
ELVIS;US;22/06/22;1,22
ELEVE DUCOBU (L');FRANCE;22/06/11;1,49
ELEMENTAIRE;US;21/06/23;3,2
EIFFEL;FR/DE;13/10/21;1,49
EFFROYABLES JARDINS;FRANCE;26/03/03;1,02
EDGE OF TOMORROW;GRANDE BRETAGNE;04/06/14;1,22
ECOLE BUISSONNIERE (L');FR;11/10/17;1,9
ECHANGE (L');ETATS UNIS;12/11/08;1,37
DUNKERQUE;GB;19/07/17;2,55
DUNE;US;15/09/21;3,18
DUMBO;USA;27/03/19;2,35
DUCOBU PRESIDENT;US;13/07/22;1,13
DUCOBU 3;FR / BE;05/02/20;1,5
DROLE DE NOEL DE SCROOGE (LE);ETATS UNIS;25/11/09;1,28
DRIVE;ETATS UNIS;05/10/11;1,54
DRAGONS 3 : LE MONDE CACHE;USA;06/02/19;3,39
DRAGONS 2;ETATS UNIS;02/07/14;3,38
DRAGONS;ETATS UNIS;31/03/10;2,32
DOUBLURE (LA);FRANCE / ITALIE;29/03/06;3,08
DOUBLE ZERO;FRANCE / GRANDE BRETAGNE;16/06/04;1,8
DONNE MOI DES AILES;FR;09/10/19;1,45
DONJONS & DRAGONS : L'HONNEUR DES VOLEURS;US;12/04/23;1,19
DOCTOR STRANGE IN THE MULTIVERSE OF MADNESS;US;04/05/22;3,29
DOCTOR STRANGE;ETATS UNIS;26/10/16;1,92
DJANGO UNCHAINED;ETATS UNIS;16/01/13;4,31
DIX-HUIT ANS APRES;FRANCE;05/02/03;1,54
DIVERGENTE 3 : AU-DELA DU MUR;ETATS UNIS;09/03/16;2,11
DIVERGENTE 2 : L'INSURRECTION;ETATS UNIS;18/03/15;2,42
DIVERGENTE;ETATS UNIS;09/04/14;1,5
DISTRICT 9;ETATS UNIS;16/09/09;1,11
DISCOURS D'UN ROI (LE);GRANDE BRETAGNE;02/02/11;3,03
DISCO;France;02/04/08;2,35
DIE HARD 4 RETOUR EN ENFER;ETATS UNIS;04/07/07;2,27
DIE HARD : BELLE JOURNEE POUR MOURIR;ETATS UNIS;20/02/13;1,83
DIALOGUE AVEC MON JARDINIER;FRANCE;06/06/07;1,36
DIABLE S'HABILLE EN PRADA (LE);ETATS UNIS;27/09/06;2,16
DEUX JOURS À TUER;France;30/04/08;1,09
DEUX FRERES;FRANCE / GRANDE BRETAGNE;07/04/04;3,31
DESTINATION FINALE 4;ETATS UNIS;26/08/09;1,11
DES HOMMES ET DES DIEUX;FRANCE;08/09/10;3,14
DERNIER TRAPPEUR (LE);FRANCE / CANADA / ALLEMAGNE / ITALIE;15/12/04;1,04
DERNIER TRAPPEUR (LE);FRANCE / CANADA / ALLEMAGNE / ITALIE;15/12/04;1,19
DERNIER SAMOURAI (LE);ETATS UNIS;14/01/04;2,2
DERNIER MAITRE DE L'AIR (LE);ETATS UNIS;28/07/10;1,18
DERNIER LOUP (LE);CHINE / FRANCE;25/02/15;1,33
DERNIER DES TEMPLIERS (LE);ETATS UNIS;12/01/11;1
DEMAIN TOUT COMMENCE;FR / GB;07/12/16;1,13
DEMAIN TOUT COMMENCE;FRANCE / GRANDE BRETAGNE;07/12/16;2,07
DEADPOOL 2;US;16/05/18;2,6
DEADPOOL;ETATS UNIS;10/02/16;3,76
DE ROUILLE ET D'OS;FRANCE  / BELGIQUE;17/05/12;1,91
DE L'AUTRE COTE DU PERIPH;FRANCE;19/12/12;1,08
DE L'AUTRE COTE DU PERIPH;FRANCE;19/12/12;1,18
DE L'AUTRE COTE DU LIT;FRANCE;07/01/09;1,81
DE BATTRE MON CŒUR S'EST ARRETE;FRANCE;16/03/05;1,01
DARK SHADOWS;GRANDE BRETAGNE;09/05/12;1,95
DAREDEVIL;ETATS UNIS;19/03/03;1,33
DANS LA MAISON;FRANCE;10/10/12;1,18
DALTON (LES);FRANCE / ALLEMAGNE / ESPAGNE;08/12/04;1,68
DA VINCI CODE;ETATS UNIS;17/05/06;4,16
CRUELLA;US;23/06/21;1,43
CROODS (LES);ETATS UNIS;10/04/13;2,38
CRIME EST NOTRE AFFAIRE (LE);FRANCE;15/10/08;1,18
CREED, L'HERITAGE DE ROCKY BALBOA;ETATS UNIS;13/01/16;1,64
CREED III;US;01/03/23;2,3
CREED II;USA;09/01/19;1,73
COUT DE LA VIE (LE);FRANCE;30/07/03;1,1
CONSTANTINE;ETATS UNIS;16/02/05;1,22
CONNASSE, PRINCESSE DES CŒURS;FRANCE;29/04/15;1,2
CONJURING, LES DOSSIERS WARREN;ETATS UNIS;21/08/13;1,16
CONJURING 3 SOUS L'EMPRISE DU DIABLE;US;09/06/21;1,89
CONJURING 2 : LE CAS ENFIELD;ETATS UNIS;29/06/16;1,47
CONCERT (LE);FRANCE / BELGIQUE / ROUMANIE / ITALIE;04/11/09;1,61
COMME UNE IMAGE;FRANCE / ITALIE;22/09/04;1,59
COMME T'Y ES BELLE !;FRANCE / GRANDE BRETAGNE / LUXEMBOURG / BELGIQUE;10/05/06;1,04
COMME DES BETES 2;USA;31/07/19;2,31
COMME DES BETES;ETATS UNIS;27/07/16;3,76
COLLATERAL;ETATS UNIS;29/09/04;1,45
CŒUR DES HOMMES N°2 (LE);France;24/10/07;1,81
COEUR DES HOMMES (LE);FRANCE;02/04/03;1,53
CODE A CHANGÉ (LE);FRANCE;18/02/09;1,63
COCO AVANT CHANEL;FRANCE;22/04/09;1,04
COCO;US;29/11/17;1,35
COCO;FRANCE;18/03/09;2,93
COCO;US;29/11/17;3,26
COCCINELLE REVIENT (LA);ETATS UNIS;03/08/05;1,31
CLOCLO;FRANCE  / BELGIQUE;14/03/12;1,76
CLOCHETTE ET LE SECRET DES FEES;ETATS UNIS;10/10/12;1,44
CLOCHETTE ET LA FÉE PIRATE;ETATS UNIS;02/04/14;1,03
CINQUANTE NUANCES PLUS SOMBRES;US;08/02/17;3,14
CINQUANTE NUANCES PLUS CLAIRES;US;07/02/18;2,76
CINQUANTE NUANCES DE GREY;ETATS UNIS;11/02/15;4,07
CINQ LEGENDES (LES);ETATS UNIS;28/11/12;2,28
CIGOGNES ET COMPAGNIE;ETATS UNIS;12/10/16;1,02
CHTITE FAMILLE (LA);FR;28/02/18;5,62
CHRONICLE;ETATS UNIS;22/02/12;1,02
CHOUCHOU;FRANCE;19/03/03;3,82
CHORISTES (LES);FRANCE / SUISSE;17/03/04;8,43
CHOCOLAT;FRANCE;03/02/16;1,93
CHOC DES TITANS (LE);GRANDE BRETAGNE;07/04/10;1,87
CHIMPANZES DE L'ESPACE (LES);ETATS UNIS;22/10/08;1,25
CHICKEN LITTLE;ETATS UNIS;07/12/05;2,03
CHICAGO;ETATS UNIS;26/02/03;1,13
CHEVALIERS DU CIEL (LES);FRANCE;09/11/05;1,28
CHATEAU AMBULANT (LE);ETATS UNIS;12/01/05;1,31
CHAT POTTE (LE);ETATS UNIS;30/11/11;3,43
CHARLIE'S ANGELS : LES ANGES SE DECHAINENT;ETATS UNIS;16/07/03;1,56
CHARLIE ET LA CHOCOLATERIE;GRANDE BRETAGNE;13/07/05;4,24
CHANT DU LOUP (LE);FR;20/02/19;1,55
CHANCE DE MA VIE (LA);FRANCE / BELGIQUE;05/01/11;1,04
CENDRILLON;GRANDE BRETAGNE;25/03/15;1,67
CASSE-TETE CHINOIS ;FRANCE / BELGIQUE;04/12/13;1,27
CASINO ROYALE;GRANDE BRETAGNE;22/11/06;2,84
CASH;France;23/04/08;1,11
CASE DEPART;FRANCE;06/07/11;1,77
CARS QUATRE ROUES;ETATS UNIS;14/06/06;2,02
CARS 3;US;02/08/17;2,72
CARS 2;ETATS UNIS;27/07/11;2,91
CAPTAIN MARVEL;USA;06/03/19;3,31
CAPTAIN AMERICA : LE SOLDAT DE L'HIVER;ETATS UNIS;26/03/14;1,88
CAPTAIN AMERICA : CIVIL WAR;ETATS UNIS;27/04/16;2,92
CAPTAIN AMERICA - FIRST AVENGER;ETATS UNIS;17/08/11;1,07
CAMPING 3;FRANCE;29/06/16;3,22
CAMPING 2;FRANCE;21/04/10;3,98
CAMPING;FRANCE;26/04/06;5,47
CAGE DOREE (LA);FRANCE;24/04/13;1,23
CA CHAPITRE 2;USA;11/09/19;1,49
CA;US;20/09/17;2,23
C'EST QUOI CETTE MAMIE ?!;FR;07/08/19;1,19
BUZZ L'ECLAIR;FR;22/06/22;1,5
BURN AFTER READING;ETATS UNIS;10/12/08;1,06
BULLET TRAIN;US;03/08/22;1,53
BRUCE TOUT PUISSANT;ETATS UNIS;03/09/03;2,67
BRONZÉS 3 (LES) - AMIS POUR LA VIE;FRANCE;01/02/06;10,23
BRIDGET JONES BABY;GRANDE BRETAGNE;05/10/16;1,97
BRIDGET JONES : L'AGE DE RAISON;ETATS UNIS;08/12/04;1,53
BRICE DE NICE;FRANCE;06/04/05;4,43
BRICE 3;FRANCE;19/10/16;1,95
BOULE ET BILL;FRANCE / BELGIQUE / LUXEMBOURG;27/02/13;2,01
BOUDU;FRANCE;09/03/05;1,2
BOITE NOIRE;FR;08/09/21;1,18
BOHEMIAN RHAPSODY;GB;31/10/18;3,72
BOB L'EPONGE, LE FILM - UN HEROS SORT DE L'EAU;ETATS UNIS;18/02/15;1,3
BLUE JASMINE;ETATS UNIS;25/09/13;1,43
BLOOD DIAMOND;ETATS UNIS;31/01/07;1,31
BLANCHE-NEIGE ET LE CHASSEUR;ETATS UNIS;13/06/12;1,98
BLADE RUNNER 2049;US;04/10/17;1,26
BLACKKKLANSMAN;US;22/08/18;1,31
BLACK WIDOW;US;07/07/21;1,68
BLACK SWAN;ETATS UNIS;09/02/11;2,65
BLACK PANTHER : WAKANDA FOREVER;US;09/11/22;3,48
BLACK PANTHER;US;14/02/18;3,62
BLACK ADAM;FR;19/10/22;2,08
BIS;FRANCE;18/02/15;1,51
BIRDS OF PREY ET LA FANTABULEUSE HISTOIRE DE HARLEY QUINN;US;05/02/20;1,05
BIG FISH;ETATS UNIS;03/03/04;1,14
BIENVENUE CHEZ LES CH'TIS;France;27/02/08;20,44
BIENVENUE A BORD;FRANCE;05/10/11;1,43
BEUZE (LA);FRANCE;05/02/03;1,96
BENJAMIN GATES ET LE LIVRE DES SECRETS;ETATS UNIS;13/02/08;1,95
BELLE ET SEBASTIEN 3, LE DERNIER CHAPITRE;FR;14/02/18;1,68
BELLE ET SEBASTIEN : L'AVENTURE CONTINUE;FRANCE;09/12/15;1,37
BELLE ET SÉBASTIEN;FRANCE;18/12/13;1,34
BELLE ET SEBASTIEN;FRANCE;18/12/13;1,68
BELLE EPOQUE (LA);FR;06/11/19;1,26
BAYWATCH ALERTE A MALIBU;US;21/06/17;1,59
BATTLESHIP;ETATS UNIS;11/04/12;1,06
BATMAN V SUPERMAN : L'AUBE DE LA JUSTICE;ETATS UNIS;23/03/16;2,49
BATMAN BEGINS;ETATS UNIS;15/06/05;1,49
BARBIE;GB;19/07/23;5,87
BARBECUE;FRANCE;30/04/14;1,61
BANLIEUE 13 - ULTIMATUM;FRANCE;18/02/09;1,1
BAMBI 2;ETATS UNIS;01/02/06;1,85
BALLERINA;CANADA / FRANCE;14/12/16;1,34
BAD BOYS II;ETATS UNIS;15/10/03;1,88
BAD BOYS FOR LIFE;US;22/01/20;1,73
BAC NORD;FR;18/08/21;2,21
BABYSITTING 2;FRANCE;02/12/15;2,53
BABYSITTING;FRANCE;16/04/14;2,36
BABYLON;US;18/01/23;1,51
BABY BOSS 2 UNE AFFAIRE DE FAMILLE;US;18/08/21;1,01
BABY BOSS;US;29/03/17;3,87
AZUR ET ASMAR;FRANCE / BELGIQUE / ESPAGNE / ITALIE;25/10/06;1,61
AVIATOR;ETATS UNIS;26/01/05;1,68
AVENTURES EXTRAORDINAIRES D'ADELE BLANC-SEC (LES);FRANCE;14/04/10;1,63
AVENTURES DE TINTIN : LE SECRET DE LA LICORNE (LES);ETATS UNIS;26/10/11;5,37
AVENGERS : L'ERE D'ULTRON;ETATS UNIS;22/04/15;4,24
AVENGERS : INFINITY WAR;US;25/04/18;5,04
AVENGERS : ENDGAME;USA;24/04/19;6,83
AVENGERS;ETATS UNIS;25/04/12;4,41
AVATAR : LA VOIE DE L'EAU;US;14/12/22;5,22
AVATAR : LA VOIE DE L'EAU;US;14/12/22;7,91
AVATAR;ETATS UNIS;16/12/09;6,3
AVATAR;ETATS UNIS;16/12/09;8,47
AU-DELA;ETATS UNIS;19/01/11;1,93
AU REVOIR LA HAUT;FR;25/10/17;1,99
AU NOM DE LA TERRE;FR;25/09/19;1,98
ASTERIX ET OBELIX ET L'EMPIRE DU MILIEU;FR;01/02/23;4,61
ASTÉRIX ET OBÉLIX : AU SERVICE DE SA MAJESTE;FRANCE  / HONGRIE / ESPAGNE / ITALIE;17/10/12;3,79
ASTÉRIX ET LES VIKINGS;FRANCE;12/04/06;1,37
ASTERIX ET LE SECRET DE LA POTION MAGIQUE;FR;05/12/18;1,07
ASTERIX ET LE SECRET DE LA POTION MAGIQUE;FR;05/12/18;2,89
ASTÉRIX ET LE DOMAINE DES DIEUX;FRANCE / BELGIQUE;26/11/14;2,68
ASTÉRIX AUX JEUX OLYMPIQUES;France / Allemagne / Espagne / Italie;30/01/08;6,81
ASSASSIN'S CREED;ETATS UNIS;21/12/16;1,25
ARTHUR ET LES MINIMOYS (EX : ARTHUR);FRANCE;13/12/06;2,25
ARTHUR ET LES MINIMOYS (EX : ARTHUR);FRANCE;13/12/06;4,12
ARTHUR ET LA VENGEANCE DE MALTAZARD;FRANCE;02/12/09;3,53
ARTHUR 3 ET LA GUERRE DES DEUX MONDES;FRANCE;13/10/10;3,1
ARSENE LUPIN;FRANCE / GRANDE BRETAGNE / ESPAGNE / ITALIE;13/10/04;1,18
ARRETE MOI SI TU PEUX;ETATS UNIS;12/02/03;3,6
ARNACOEUR (L');FRANCE;17/03/10;3,78
ARGO;ETATS UNIS;07/11/12;1,15
AQUAMAN ET LE ROYAUME PERDU;GB;20/12/23;1,11
AQUAMAN;USA;19/12/18;1,4
AQUAMAN;US;19/12/18;1,9
APPRENTI SORCIER (L');ETATS UNIS;11/08/10;1,66
ANT-MAN ET LA GUEPE : QUANTUMANIA;US;15/02/23;1,57
ANT-MAN ET LA GUEPE;US;18/07/18;1,8
ANT-MAN;ETATS UNIS;14/07/15;1,72
ANNABELLE 2 LA CREATION DU MAL;US;09/08/17;1,25
ANNABELLE;ETATS UNIS;08/10/14;1,54
ANIMAUX FANTASTIQUES (LES) : LES CRIMES DE GRINDELWALD;GB;14/11/18;3,86
ANIMAUX FANTASTIQUES (LES);GRANDE BRETAGNE;16/11/16;3,81
ANIMAUX & CIE;Allemagne;09/02/11;1,03
ANGES & DEMONS;ETATS UNIS;13/05/09;2,04
ANATOMIE D'UNE CHUTE;FR;23/08/23;1,3
AMOUR C'EST MIEUX A DEUX (L') (EX L'HOMME QUI MURMURAIT A L'OREILLE DES FEMMES);FRANCE;05/05/10;1,12
AMERICAN SNIPER;ETATS UNIS;18/02/15;3,13
AMERICAN PIE:THE WEDDING;ETATS UNIS;15/10/03;1,91
AMERICAN PIE 4;ETATS UNIS;02/05/12;1,52
AMERICAN NIGHTMARE 4 LES ORIGINES;US;04/07/18;1,03
AMERICAN GANGSTER;ETATS UNIS;14/11/07;1,17
ALVIN ET LES CHIPMUNKS 3;ETATS UNIS;21/12/11;1,07
ALVIN ET LES CHIPMUNKS 3;ETATS UNIS;21/12/11;1,37
ALVIN ET LES CHIPMUNKS : A FOND LA CAISSE;ETATS UNIS;03/02/16;1,8
ALITA : BATTLE ANGEL;USA;13/02/19;2,04
ALINE;FR/CA;10/11/21;1,28
ALIEN COVENANT;US;10/05/17;1,27
ALICE DE L'AUTRE COTE DU MIROIR;ETATS UNIS;01/06/16;1,35
ALICE AU PAYS DES MERVEILLES;ETATS UNIS;24/03/10;4,43
ALIBI.COM 2;FR;08/02/23;4,28
ALIBI.COM;FR;15/02/17;3,6
ALEXANDRE;GRANDE BRETAGNE / FRANCE / PAYS BAS;05/01/05;1,25
ALCESTE A BICYCLETTE;FRANCE;16/01/13;1,17
ALADDIN;USA;22/05/19;2,46
ALAD 2;FR;03/10/18;2,35
AGENCE TOUS RISQUES (L');ETATS UNIS;16/06/10;1,19
AGE DE GLACE 4 : LA DERIVE DES CONTINENTS (LA);ETATS UNIS;27/06/12;6,64
AGE DE GLACE 3 LE TEMPS DES DINOSAURES (L');ETATS UNIS;03/07/09;7,83
AGE DE GLACE 2 (L');ETATS UNIS;05/04/06;6,62
AGE DE GLACE : LES LOIS DE L'UNIVERS (L');ETATS UNIS;13/07/16;3,5
AGATHE CLÉRY;France;03/12/08;1,09
AFTER EARTH;ETATS UNIS;05/06/13;1,28
AFTER - CHAPITRE 1;USA;17/04/19;1,23
ADOPTE UN VEUF;FRANCE;20/04/16;1,09
ADIEU LES CONS;FR;21/10/20;1,29
AD ASTRA;USA;18/09/19;1,05
ABOMINABLE;USA;23/10/19;1,99
A STAR IS BORN;US;03/10/18;1,88
A LA CROISEE DES MONDES : LA BOUSSOLE D'OR;GRANDE BRETAGNE;05/12/07;2,29
A BRAS OUVERTS;FR / BE;05/04/17;1,03
99 FRANCS;France;26/09/07;1,23
9 MOIS FERME;FRANCE;16/10/13;1,99
8 SALOPARDS (LES);ETATS UNIS;06/01/16;1,78
8 MILE;ETATS UNIS;26/02/03;2,24
7 ANS DE MARIAGE...;FRANCE;25/06/03;1,63
5EME VAGUE (LA);ETATS UNIS;27/01/16;1
4 FANTASTIQUES ET LE SURFER D'ARGENT (LES);ETATS UNIS;08/08/07;1,66
4 FANTASTIQUES (LES);ETATS UNIS;05/08/15;1,2
4 FANTASTIQUES (LES);ETATS UNIS;20/07/05;2,22
36 QUAI DES ORFEVRES;FRANCE;24/11/04;1,68
300 : LA NAISSANCE D'UN EMPIRE;ETATS UNIS;05/03/14;1,56
30 JOURS MAX;FR;14/10/20;1,14
3 JOURS MAX;FR;25/10/23;1,89
20 ANS D'ECART;FRANCE;06/03/13;1,4
17 ANS ENCORE;ETATS UNIS;22/04/09;1,01
12 YEARS A SLAVE;ETATS UNIS;22/01/14;1,71
11 COMMANDEMENTS (LES);FRANCE;04/02/04;2,96
10 JOURS SANS MAMAN;FR;19/02/20;1,18
007 SPECTRE;GRANDE BRETAGNE;11/11/15;4,81
2012;ETATS UNIS;11/11/09;4,58
1917;US;15/01/20;2,23
300;ETATS UNIS;21/03/07;1,65
